Exercice 1 :

1) 
	S0 = 1
	S1 = 3
	S2 = 3
	S3 = 3
	S4 = 2
	S5 = 1
	S6 = 1

2)

0 -> 6
1 -> 2,3,5
2 -> 1,3,4
3 -> 1,2,4
4 -> 2,3
5 -> 1 
6 -> 0

	0 	1 	2 	3 	4 	5 	6

0 	0 	0 	0 	0 	0 	0 	1

1 	0 	0 	1 	1 	0 	1 	0

2 	0 	1 	0 	1 	1 	0 	0

3 	0 	1 	1 	0 	1 	0 	0

4 	0 	0 	1 	1 	0 	0 	0

5 	0 	1 	0 	0 	0 	0 	0

6 	1 	0 	0 	0 	0 	0 	0



